<svg xmlns="http://www.w3.org/2000/svg" width="12" height="18" viewBox="0 0 12 18">
    <path fill="#B1B2BC" fill-rule="nonzero" d="M.348 9.165L5.885 0l5.537 9.165-5.537 3.265L.348 9.165zm11.077 1.047l-5.54 7.784-5.537-7.784 5.537 3.263 5.54-3.263z"/>
</svg>
